module mashu.example

go 1.18

require (
	github.com/gin-gonic/gin v1.7.7
	github.com/go-playground/assert/v2 v2.0.1
	github.com/go-redis/redis/v8 v8.11.5
	github.com/golang-jwt/jwt v3.2.2+incompatible
	github.com/golang/mock v1.6.0
	github.com/google/uuid v1.3.0
	github.com/sirupsen/logrus v1.8.1
	github.com/stretchr/testify v1.7.1
	golang.org/x/exp v0.0.0-20220321173239-a90fa8a75705
	gorm.io/driver/sqlite v1.2.0
	gorm.io/gorm v1.23.3
)

require (
	github.com/cespare/xxhash/v2 v2.1.2 // indirect
	github.com/davecgh/go-spew v1.1.1 // indirect
	github.com/dgryski/go-rendezvous v0.0.0-20200823014737-9f7001d12a5f // indirect
	github.com/fsnotify/fsnotify v1.5.1 // indirect
	github.com/gin-contrib/sse v0.1.0 // indirect
	github.com/go-playground/locales v0.14.0 // indirect
	github.com/go-playground/universal-translator v0.18.0 // indirect
	github.com/go-playground/validator/v10 v10.10.1 // indirect
	github.com/go-sql-driver/mysql v1.6.0 // indirect
	github.com/golang/protobuf v1.5.2 // indirect
	github.com/google/go-cmp v0.5.7 // indirect
	github.com/gorilla/websocket v1.5.0 // indirect
	github.com/jinzhu/inflection v1.0.0 // indirect
	github.com/jinzhu/now v1.1.5 // indirect
	github.com/json-iterator/go v1.1.12 // indirect
	github.com/leodido/go-urn v1.2.1 // indirect
	github.com/mattn/go-isatty v0.0.14 // indirect
	github.com/mattn/go-sqlite3 v1.14.12 // indirect
	github.com/mitchellh/go-ps v1.0.0 // indirect
	github.com/modern-go/concurrent v0.0.0-20180306012644-bacd9c7ef1dd // indirect
	github.com/modern-go/reflect2 v1.0.2 // indirect
	github.com/pmezard/go-difflib v1.0.0 // indirect
	github.com/silenceper/gowatch v1.5.2 // indirect
	github.com/silenceper/log v0.0.0-20171204144354-e5ac7fa8a76a // indirect
	github.com/ugorji/go/codec v1.2.7 // indirect
	golang.org/x/crypto v0.0.0-20220331220935-ae2d96664a29 // indirect
	golang.org/x/sys v0.0.0-20220406163625-3f8b81556e12 // indirect
	golang.org/x/text v0.3.7 // indirect
	google.golang.org/protobuf v1.28.0 // indirect
	gopkg.in/yaml.v1 v1.0.0-20140924161607-9f9df34309c0 // indirect
	gopkg.in/yaml.v2 v2.4.0 // indirect
	gopkg.in/yaml.v3 v3.0.0-20210107192922-496545a6307b // indirect
	gorm.io/driver/mysql v1.3.2 // indirect
)
